lubridate practice
…
the unit can be other combinations as well

e.g.

"2 day"

"5 mins"

"quarter"

(taxi <- taxi %>% 
  mutate(trip_start = round_date(trip_start, 
                                 unit = "1 hour")))

## # A tibble: 4,992 x 15
##    taxi_id trip_start          trip_end            trip_miles  fare  tips
##      <dbl> <dttm>              <dttm>                   <dbl> <dbl> <dbl>
##  1      85 2016-01-13 06:00:00 2016-01-13 06:15:00       0.4   4.5   0   
##  2    2776 2016-01-22 10:00:00 2016-01-22 09:45:00       0.7   4.45  4.45
##  3    3168 2016-01-31 22:00:00 2016-01-31 21:30:00       0    42.8   5   
##  4    4237 2016-01-23 18:00:00 2016-01-23 17:30:00       1.1   7     0   
##  5    5710 2016-01-14 06:00:00 2016-01-14 06:00:00       2.71 10.2   0   
##  6    1987 2016-01-08 18:00:00 2016-01-08 18:45:00       6.2  17.8   0   
##  7    4986 2016-01-14 05:00:00 2016-01-14 05:00:00      18.4  45    12   
##  8    6400 2016-01-26 04:00:00 2016-01-26 04:15:00       0.2   3.75  0   
##  9    7418 2016-01-22 12:00:00 2016-01-22 11:45:00       0     5     2   
## 10    6450 2016-01-07 21:00:00 2016-01-07 21:15:00       0     3.25  0   
## # ... with 4,982 more rows, and 9 more variables: tolls <dbl>,
## #   trip_total <dbl>, payment_type <chr>, company <dbl>, duration <time>,
## #   alt_end_time <dttm>, fix_duration <time>, hour <int>,
## #   time_category <chr>
…
